\relax 
\@writefile{lof}{\contentsline {figure}{\numberline {1}{\ignorespaces Contour plots of q, u and v and surface Plot of q at t = 0; initial condition}}{2}}
\newlabel{fig:casea}{{1}{2}}
\@writefile{lof}{\contentsline {figure}{\numberline {2}{\ignorespaces Contour Plots at t = 25, 50 and 100 timesteps for Lax Wendroff}}{3}}
\newlabel{fig:casea}{{2}{3}}
\@writefile{lof}{\contentsline {figure}{\numberline {3}{\ignorespaces Surface Plots at t = 25, 50 and 100 timesteps for Lax Wendroff}}{4}}
\newlabel{fig:casea}{{3}{4}}
\@writefile{lof}{\contentsline {figure}{\numberline {4}{\ignorespaces Contour Plots at t = 25, 50 and 100 timesteps for 6th Order Crowley}}{5}}
\newlabel{fig:casea}{{4}{5}}
\@writefile{lof}{\contentsline {figure}{\numberline {5}{\ignorespaces Surface Plots at t = 25, 50 and 100 timesteps for 6th Order Crowley}}{6}}
\newlabel{fig:casea}{{5}{6}}
\@writefile{lof}{\contentsline {figure}{\numberline {6}{\ignorespaces Contour Plots at t = 25, 50 and 100 timesteps for Takacs scheme}}{7}}
\newlabel{fig:casea}{{6}{7}}
\@writefile{lof}{\contentsline {figure}{\numberline {7}{\ignorespaces Surface Plots at t = 25, 50 and 100 timesteps for Takacs scheme}}{8}}
\newlabel{fig:casea}{{7}{8}}
\@writefile{lol}{\contentsline {lstlisting}{p3.f90}{8}}
\@writefile{lol}{\contentsline {lstlisting}{advection.f90}{12}}
\@writefile{lol}{\contentsline {lstlisting}{bc.f90}{13}}
\@writefile{lol}{\contentsline {lstlisting}{advect1d.f90}{14}}
