\relax 
\@writefile{toc}{\contentsline {section}{\numberline {1}Notes}{1}}
\@writefile{lof}{\contentsline {figure}{\numberline {1}{\ignorespaces Contour plots of q, u and v and surface Plot of q at t = 0; initial condition}}{2}}
\newlabel{fig:casea}{{1}{2}}
\@writefile{lof}{\contentsline {figure}{\numberline {2}{\ignorespaces Contour plots of q nested grid and Truncation error; initial condition}}{3}}
\newlabel{fig:casea}{{2}{3}}
\@writefile{lof}{\contentsline {figure}{\numberline {3}{\ignorespaces (i) Final solution Contour and surface Plots for feedback Case (ii) Qmax over time spatial distribution contour and surface plots for feedback case}}{4}}
\newlabel{fig:casea}{{3}{4}}
\@writefile{lof}{\contentsline {figure}{\numberline {4}{\ignorespaces Plots of qmax and qmin for feedback case}}{5}}
\newlabel{fig:casea}{{4}{5}}
\@writefile{lof}{\contentsline {figure}{\numberline {5}{\ignorespaces (i) Final solution Contour and surface Plots for no feedback Case (ii) Qmax over time spatial distribution contour and surface plots for no feedback case}}{6}}
\newlabel{fig:casea}{{5}{6}}
\@writefile{lof}{\contentsline {figure}{\numberline {6}{\ignorespaces Plots of qmax and qmin for no feedback case}}{7}}
\newlabel{fig:casea}{{6}{7}}
\@writefile{lol}{\contentsline {lstlisting}{p4.f90}{7}}
\@writefile{lol}{\contentsline {lstlisting}{nestfind.f90}{13}}
\@writefile{lol}{\contentsline {lstlisting}{advection.f90}{16}}
\@writefile{lol}{\contentsline {lstlisting}{bc.f90}{17}}
\@writefile{lol}{\contentsline {lstlisting}{bc2d.f90}{18}}
\@writefile{lol}{\contentsline {lstlisting}{advect1d.f90}{20}}
\@writefile{lol}{\contentsline {lstlisting}{erroral.f90}{22}}
