\relax 
\@writefile{toc}{\contentsline {section}{\numberline {1}Linear Advection with Lax Wendroff Scheme}{2}}
\@writefile{lof}{\contentsline {figure}{\numberline {1}{\ignorespaces Initial Condition (N = 0), Final solution, Qmax and Qmin vs t, for Lax Wendroff}}{2}}
\newlabel{fig:casea}{{1}{2}}
\@writefile{toc}{\contentsline {section}{\numberline {2}Linear Advection with Upstream Scheme}{3}}
\@writefile{lof}{\contentsline {figure}{\numberline {2}{\ignorespaces Initial Condition (N = 0), Final solution, Qmax and Qmin vs t, for Upstream}}{3}}
\newlabel{fig:caseb}{{2}{3}}
\@writefile{lof}{\contentsline {figure}{\numberline {3}{\ignorespaces Surface plots for both Lax Wendroff as well as Upstream schemes}}{4}}
\newlabel{fig:sfc}{{3}{4}}
\@writefile{toc}{\contentsline {section}{\numberline {3}Code attachments - Modified Files}{4}}
\@writefile{toc}{\contentsline {subsection}{\numberline {3.1}advection.f90}{4}}
\@writefile{lol}{\contentsline {lstlisting}{advection.f90}{4}}
\@writefile{toc}{\contentsline {subsection}{\numberline {3.2}advect1d.f90}{5}}
\@writefile{lol}{\contentsline {lstlisting}{advect1d.f90}{5}}
\@writefile{toc}{\contentsline {subsection}{\numberline {3.3}p2.f90}{6}}
\@writefile{lol}{\contentsline {lstlisting}{p2.f90}{6}}
\@writefile{toc}{\contentsline {subsection}{\numberline {3.4}stats.f90}{9}}
\@writefile{lol}{\contentsline {lstlisting}{stats.f90}{9}}
\@writefile{toc}{\contentsline {subsection}{\numberline {3.5}erroral.f90: Error analysis subroutine}{10}}
\@writefile{lol}{\contentsline {lstlisting}{erroral.f90}{10}}
