\relax 
\@writefile{toc}{\contentsline {section}{\numberline {1}Linear Advection with $\Delta $t = 0.05}{2}}
\@writefile{lof}{\contentsline {figure}{\numberline {1}{\ignorespaces Initial Condition (N = 0), Final Time Step (N = 150) and Q vs. t for Case A (Linear Advection)}}{2}}
\newlabel{fig:casea}{{1}{2}}
\@writefile{toc}{\contentsline {section}{\numberline {2}Linear Advection with $\Delta $t = 0.105}{3}}
\@writefile{lof}{\contentsline {figure}{\numberline {2}{\ignorespaces Initial Condition (N = 0), Solution Blowing up (N= 85) and Q vs. t for Case B (Linear Advection)}}{3}}
\newlabel{fig:caseb}{{2}{3}}
\@writefile{toc}{\contentsline {section}{\numberline {3}Non-Linear Advection with $\Delta $t = 0.05}{4}}
\@writefile{lof}{\contentsline {figure}{\numberline {3}{\ignorespaces Initial Condition (N = 0), Final Time Step (N = 150) and Q vs. t for Case C (Non-Linear Advection)}}{4}}
\newlabel{fig:casec}{{3}{4}}
\@writefile{toc}{\contentsline {section}{\numberline {4}Code attachments - Modified Files}{5}}
\@writefile{toc}{\contentsline {subsection}{\numberline {4.1}bc.f90}{5}}
\@writefile{lol}{\contentsline {lstlisting}{bc.f90}{5}}
\@writefile{toc}{\contentsline {subsection}{\numberline {4.2}advection.f90}{5}}
\@writefile{lol}{\contentsline {lstlisting}{advection.f90}{5}}
\@writefile{toc}{\contentsline {subsection}{\numberline {4.3}p1.f90}{6}}
\@writefile{lol}{\contentsline {lstlisting}{p1.f90}{6}}
